spi_final/asy_fifo_waveform_result.vcd
$date
	Wed Jul 13 15:06:34 2016
$end
$version
	Icarus Verilog
$end
$timescale
	1ps
$end
$scope module asy_fifo_output_test $end
$var event 1 ! end_first_pass $end
$var wire 1 " spi_cs $end
$var wire 120 # data_out [119:0] $end
$var reg 1 $ clk $end
$var reg 1 % control_clk_miso $end
$var reg 1 & read_req $end
$var reg 1 ' rst $end
$var reg 8 ( wdata [7:0] $end
$scope module A1 $end
$var wire 1 $ clk $end
$var wire 1 % control_clk_miso $end
$var wire 1 & read_req $end
$var wire 1 ' rst $end
$var wire 8 ) wdata [7:0] $end
$var reg 120 * data_out [119:0] $end
$var reg 1 + r_empty $end
$var reg 4 , r_pointer [3:0] $end
$var reg 8 - rdata [7:0] $end
$var reg 1 . rinc $end
$var reg 1 " spi_cs $end
$var reg 1 / w_full $end
$var reg 4 0 w_pointer [3:0] $end
$var reg 1 1 winc $end
$upscope $end
$upscope $end
$enddefinitions $end
#0
$dumpvars
x1
b0 0
0/
x.
bx -
b0 ,
0+
bx *
bx )
bx (
0'
0&
0%
0$
bx #
1"
1!
$end
#10000
0.
11
1$
#20000
0$
#30000
1$
#40000
0$
#50000
b1 0
1$
b1 (
b1 )
1'
1%
#60000
0$
#70000
1$
#80000
0$
#90000
1$
#100000
0$
0%
#110000
1$
#120000
0$
#130000
1$
#140000
0$
#150000
b10 0
1$
1%
b10 (
b10 )
#160000
0$
#170000
1$
#180000
0$
#190000
1$
#200000
0$
0%
#210000
1$
#220000
0$
#230000
1$
#240000
0$
#250000
b11 0
1$
1%
b10100 (
b10100 )
#260000
0$
#270000
1$
#280000
0$
#290000
1$
#300000
0$
0%
#310000
1$
#320000
0$
#330000
1$
#340000
0$
#350000
b100 0
1$
1%
b11110 (
b11110 )
#360000
0$
#370000
1$
#380000
0$
#390000
1$
#400000
0$
0%
#410000
1$
#420000
0$
#430000
1$
#440000
0$
#450000
b101 0
1$
1%
b101000 (
b101000 )
#460000
0$
#470000
1$
#480000
0$
#490000
1$
#500000
0$
0%
#510000
1$
#520000
0$
#530000
1$
#540000
0$
#550000
b110 0
1$
1%
b110010 (
b110010 )
#560000
0$
#570000
1$
#580000
0$
#590000
1$
#600000
0$
0%
#610000
1$
#620000
0$
#630000
1$
#640000
0$
#650000
b111 0
1$
1%
b111100 (
b111100 )
#660000
0$
#670000
1$
#680000
0$
#690000
1$
#700000
0$
0%
#710000
1$
#720000
0$
#730000
1$
#740000
0$
#750000
b1000 0
1$
1%
b1000110 (
b1000110 )
#760000
0$
#770000
1$
#780000
0$
#790000
1$
#800000
0$
0%
#810000
1$
#820000
0$
#830000
1$
#840000
0$
#850000
b1001 0
1$
1%
b1100100 (
b1100100 )
#860000
0$
#870000
1$
#880000
0$
#890000
1$
#900000
0$
0%
#910000
1$
#920000
0$
#930000
1$
#940000
0$
#950000
b1010 0
1$
1%
b1111000 (
b1111000 )
#960000
0$
#970000
1$
#980000
0$
#990000
1$
#1000000
0$
0%
#1010000
1$
#1020000
0$
#1030000
1$
#1040000
0$
#1050000
b1011 0
1$
1%
b10000010 (
b10000010 )
#1060000
0$
#1070000
1$
#1080000
0$
#1090000
1$
#1100000
0$
0%
#1110000
1$
#1120000
0$
#1130000
1$
#1140000
0$
#1150000
b1100 0
1$
1%
b10001100 (
b10001100 )
#1160000
0$
#1170000
1$
#1180000
0$
#1190000
1$
#1200000
0$
0%
#1210000
1$
#1220000
0$
#1230000
1$
#1240000
0$
#1250000
b1101 0
1$
1%
b10010110 (
b10010110 )
#1260000
0$
#1270000
1$
#1280000
0$
#1290000
1$
#1300000
0$
0%
#1310000
1$
#1320000
0$
#1330000
1$
#1340000
0$
#1350000
b1110 0
1$
1%
#1360000
0$
#1370000
1$
#1380000
0$
#1390000
1$
#1400000
0$
0%
#1410000
1$
#1420000
0$
#1430000
1$
#1440000
0$
#1450000
b1111 0
1$
1%
#1460000
0$
#1470000
1$
#1480000
0$
#1490000
1$
#1500000
0$
0%
#1510000
1$
#1520000
0$
#1530000
1$
#1540000
0$
#1550000
01
b0 0
1/
1$
1%
