spi_final/asy_fifo_input_waveform_result.vcd
$date
    Jul 18, 2016  12:04:16
$end
$version
    Tool:	VERILOG-XL	08.20.001-d
$end
$timescale
     1ps
$end

$scope module asy_fifo_input_test $end
$var parameter 32 !    MEMDEPTH  $end
$var reg       8 "    wdata [7:0] $end
$var reg       1 #    clk  $end
$var reg       1 $    rst  $end
$var reg       1 %    data_av  $end
$var reg       1 &    control_clk  $end
$var wire      8 '    data_to_mosi [7:0] $end
$var wire      1 (    spi_cs  $end
$var event     1 )    end_first_pass  $end

$scope module A1 $end
$var parameter 32 *    MEMDEPTH  $end
$var parameter 32 +    DSIZE  $end
$var parameter 32 ,    ASIZE  $end
$var wire      8 -    wdata [7:0] $end
$var wire      1 .    clk  $end
$var wire      1 /    data_av  $end
$var wire      1 0    control_clk  $end
$var wire      1 1    rst  $end
$var reg       4 2    w_pointer [3:0] $end
$var reg       4 3    r_pointer [3:0] $end
$var reg       8 4    rdata [7:0] $end
$var reg       1 5    winc  $end
$var reg       1 6    rinc  $end
$var reg       1 7    spi_cs  $end
$var reg       1 8    w_full  $end
$var reg       1 9    r_empty  $end
$var reg       1 :    data_en  $end
$var reg       8 ;    data_to_mosi [7:0] $end
$upscope $end

$upscope $end

$enddefinitions $end
$dumpvars
b00000000000000000000000000011110 !
b00000001 "
0#
1$
1%
0&
b00000000 '
1(
x)
b00000000000000000000000000011110 *
b00000000000000000000000000001000 +
b00000000000000000000000000000100 ,
b00000001 -
0.
1/
00
11
b0000 2
b0000 3
b00000000 4
x5
x6
17
08
09
0:
b00000000 ;
$end
#10000
1#
1.
05
06
#20000
0#
0.
#30000
1#
1.
#31000
b00000010 "
b00000010 -
#40000
0#
0.
#50000
0%
1&
1#
0/
10
1.
#51000
b00000011 "
b00000011 -
#60000
0#
0.
#70000
1#
1.
#71000
b00000100 "
b00000100 -
#80000
0#
0.
#90000
1#
1.
#91000
b00000101 "
b00000101 -
#100000
0&
0#
00
0.
#110000
1#
1.
#111000
b00000110 "
b00000110 -
#120000
0#
0.
#130000
1#
1.
#131000
b00000111 "
b00000111 -
#140000
0#
0.
#150000
1&
1#
10
1.
#151000
b00001000 "
b00001000 -
#160000
0#
0.
#170000
1#
1.
#171000
b01100100 "
b01100100 -
#180000
0#
0.
#190000
1#
1.
#191000
b01111000 "
b01111000 -
#200000
0&
0#
00
0.
#210000
1#
1.
#211000
b10000010 "
b10000010 -
#220000
0#
0.
#230000
1#
1.
#231000
b10001100 "
b10001100 -
#240000
0#
0.
#250000
1&
1#
10
1.
#251000
b10010110 "
b10010110 -
#260000
0#
0.
#270000
1#
1.
#271000
b00110111 "
b00110111 -
#280000
0#
0.
#290000
1#
1.
#291000
b11001000 "
b11001000 -
#300000
0&
0#
00
0.
#310000
1#
1.
#311000
b00001111 "
1%
b00001111 -
1/
1:
#320000
0#
0.
#330000
1#
1.
15
#340000
0#
0.
#350000
1&
1#
10
1.
b0001 2
#360000
0#
0.
#370000
1#
1.
b0010 2
#380000
0#
0.
#390000
1#
1.
b0011 2
#400000
0&
0#
00
0.
#410000
1#
1.
b0100 2
#411000
b00010000 "
b00010000 -
#420000
0#
0.
#430000
1#
1.
b0101 2
#440000
0#
0.
#450000
1&
1#
10
1.
b0110 2
#460000
0#
0.
#470000
1#
1.
b0111 2
#480000
0#
0.
#490000
1#
1.
b1000 2
#500000
0&
0#
00
0.
#510000
1#
1.
b1001 2
#511000
b00010001 "
b00010001 -
#520000
0#
0.
#530000
1#
1.
b1010 2
#540000
0#
0.
#550000
1&
1#
10
1.
b1011 2
#560000
0#
0.
#570000
1#
1.
b1100 2
#580000
0#
0.
#590000
1#
1.
b1101 2
#600000
0&
0#
00
0.
#610000
1#
1.
b1110 2
#611000
b00010010 "
b00010010 -
#620000
0#
0.
#630000
1#
1.
b1111 2
#640000
0#
0.
#650000
1&
1#
10
1.
18
b0000 2
#660000
0#
0.
#670000
1#
1.
07
05
16
0(
#680000
0#
0.
#690000
1#
1.
#700000
0&
0#
00
0.
#710000
1#
1.
#711000
b00010011 "
b00010011 -
#720000
0#
0.
#730000
1#
1.
#740000
0#
0.
#750000
1&
1#
10
1.
b0001 3
b00001111 4
b00001111 ;
b00001111 '
#760000
0#
0.
#770000
1#
1.
#780000
0#
0.
#790000
1#
1.
#800000
0&
0#
00
0.
#810000
1#
1.
#811000
b00010100 "
b00010100 -
#820000
0#
0.
#830000
1#
1.
#840000
0#
0.
#850000
1&
1#
10
1.
b0010 3
#860000
0#
0.
#870000
1#
1.
#880000
0#
0.
#890000
1#
1.
#900000
0&
0#
00
0.
#910000
1#
1.
#920000
0#
0.
#930000
1#
1.
#940000
0#
0.
#950000
1&
1#
10
1.
b0011 3
#960000
0#
0.
#970000
1#
1.
#980000
0#
0.
#990000
1#
1.
#1000000
0&
0#
00
0.
#1010000
1#
1.
#1020000
0#
0.
#1030000
1#
1.
#1040000
0#
0.
#1050000
0%
1&
1#
0/
10
1.
b0100 3
#1060000
0#
0.
#1070000
1#
1.
#1080000
0#
0.
#1090000
1#
1.
#1100000
0&
0#
00
0.
#1110000
1#
1.
#1120000
0#
0.
#1130000
1#
1.
#1140000
0#
0.
#1150000
1%
1&
1#
1/
10
1.
b0101 3
b00010000 4
b00010000 ;
b00010000 '
0:
#1160000
0#
0.
#1170000
1#
1.
#1180000
0#
0.
#1190000
1#
1.
#1200000
0&
0#
00
0.
#1210000
1#
1.
#1220000
0#
0.
#1230000
1#
1.
#1240000
0#
0.
#1250000
1&
1#
10
1.
b0110 3
#1260000
0#
0.
#1270000
1#
1.
#1280000
0#
0.
#1290000
1#
1.
#1300000
0&
0#
00
0.
#1310000
1#
1.
#1320000
0#
0.
#1330000
1#
1.
#1340000
0#
0.
#1350000
1&
1#
10
1.
b0111 3
#1360000
0#
0.
#1370000
1#
1.
#1380000
0#
0.
#1390000
1#
1.
#1400000
0&
0#
00
0.
#1410000
1#
1.
#1420000
0#
0.
#1430000
1#
1.
#1440000
0#
0.
#1450000
1&
1#
10
1.
b1000 3
#1460000
0#
0.
#1470000
1#
1.
#1480000
0#
0.
#1490000
1#
1.
#1500000
0&
0#
00
0.
#1510000
1#
1.
#1520000
0#
0.
#1530000
1#
1.
#1540000
0#
0.
#1550000
1&
1#
10
1.
b1001 3
#1560000
0#
0.
#1570000
1#
1.
#1580000
0#
0.
#1590000
1#
1.
#1600000
0&
0#
00
0.
#1610000
1#
1.
#1620000
0#
0.
#1630000
1#
1.
#1640000
0#
0.
#1650000
1&
1#
10
1.
b1010 3
b00010001 4
b00010001 ;
b00010001 '
#1660000
0#
0.
#1670000
1#
1.
#1680000
0#
0.
#1690000
1#
1.
#1700000
0&
0#
00
0.
#1710000
1#
1.
#1720000
0#
0.
#1730000
1#
1.
#1740000
0#
0.
#1750000
1&
1#
10
1.
b1011 3
#1760000
0#
0.
#1770000
1#
1.
#1780000
0#
0.
#1790000
1#
1.
#1800000
0&
0#
00
0.
#1810000
1#
1.
#1820000
0#
0.
#1830000
1#
1.
#1840000
0#
0.
#1850000
1&
1#
10
1.
b1100 3
#1860000
0#
0.
#1870000
1#
1.
#1880000
0#
0.
#1890000
1#
1.
#1900000
0&
0#
00
0.
#1910000
1#
1.
#1920000
0#
0.
#1930000
1#
1.
#1940000
0#
0.
#1950000
1&
1#
10
1.
b1101 3
#1960000
0#
0.
#1970000
1#
1.
#1980000
0#
0.
#1990000
1#
1.
#2000000
0&
0#
00
0.
#2010000
1#
1.
#2020000
0#
0.
#2030000
1#
1.
#2040000
0#
0.
#2050000
1&
1#
10
1.
b1110 3
#2060000
0#
0.
#2070000
1#
1.
#2080000
0#
0.
#2090000
1#
1.
#2100000
0&
0#
00
0.
#2110000
1#
1.
#2120000
0#
0.
#2130000
1#
1.
#2140000
0#
0.
#2150000
1&
1#
10
1.
b1111 3
b00010010 4
b00010010 ;
b00010010 '
#2160000
0#
0.
#2170000
1#
1.
#2180000
0#
0.
#2190000
1#
1.
#2200000
0&
0#
00
0.
#2210000
1#
1.
#2220000
0#
0.
#2230000
1#
1.
#2240000
0#
0.
#2250000
1&
1#
10
1.
19
b0000 3
08
#2260000
0#
0.
#2270000
1#
1.
06
09
#2280000
0#
0.
#2290000
1#
1.
17
1(
