spi_final/final_waveform_result.vcd
$date
    Jun 28, 2016  18:56:44
$end
$version
    Tool:	VERILOG-XL	08.20.001-d
$end
$timescale
     1ps
$end

$scope module final_test $end
$var wire      1 !    spi_clk  $end
$var reg       1 "    m_clk  $end
$var reg       1 #    n_reset  $end

$scope module O $end
$var wire      1 !    spi_clk  $end
$var wire      1 $    m_clk  $end
$var wire      1 %    n_reset  $end
$var reg       1 &    spi_clk_en  $end

$scope module A $end
$var wire      1 %    nrst  $end
$var wire      1 '    spi_clk_en  $end
$var wire      1 $    m_clk  $end
$var reg       1 (    spi_clk  $end
$var reg       4 )    counter [0:3] $end
$upscope $end

$upscope $end

$upscope $end

$enddefinitions $end
$dumpvars
0!
1"
1#
1$
1%
1&
1'
0(
bxxxx )
$end
#10000
0#
0%
b0000 )
#20000
1#
1%
#50000
0"
0$
#100000
1"
1$
b0001 )
#150000
0"
0$
#200000
1"
1$
b0010 )
#250000
0"
0$
#300000
1"
1$
b0011 )
#350000
0"
0$
#400000
1"
1$
b0100 )
#450000
0"
0$
#500000
1"
1$
b0101 )
#550000
0"
0$
#600000
1"
1$
b0110 )
#650000
0"
0$
#700000
1"
1$
b0111 )
#750000
0"
0$
#800000
1"
1$
b1000 )
#850000
0"
0$
#900000
1"
1$
b1001 )
#950000
0"
0$
#1000000
1"
1$
1(
b0000 )
1!
#1050000
0"
0$
#1100000
1"
1$
b0001 )
#1150000
0"
0$
#1200000
1"
1$
b0010 )
#1250000
0"
0$
#1300000
1"
1$
b0011 )
#1350000
0"
0$
#1400000
1"
1$
b0100 )
#1450000
0"
0$
#1500000
1"
1$
b0101 )
#1550000
0"
0$
#1600000
1"
1$
b0110 )
#1650000
0"
0$
#1700000
1"
1$
b0111 )
#1750000
0"
0$
#1800000
1"
1$
b1000 )
#1850000
0"
0$
#1900000
1"
1$
b1001 )
#1950000
0"
0$
#2000000
1"
1$
0(
b0000 )
0!
#2050000
0"
0$
#2100000
1"
1$
b0001 )
#2150000
0"
0$
#2200000
1"
1$
b0010 )
#2250000
0"
0$
#2300000
1"
1$
b0011 )
#2350000
0"
0$
#2400000
1"
1$
b0100 )
#2450000
0"
0$
#2500000
1"
1$
b0101 )
#2550000
0"
0$
#2600000
1"
1$
b0110 )
#2650000
0"
0$
#2700000
1"
1$
b0111 )
#2750000
0"
0$
#2800000
1"
1$
b1000 )
#2850000
0"
0$
#2900000
1"
1$
b1001 )
#2950000
0"
0$
#3000000
1"
1$
1(
b0000 )
1!
#3050000
0"
0$
#3100000
1"
1$
b0001 )
#3150000
0"
0$
#3200000
1"
1$
b0010 )
#3250000
0"
0$
#3300000
1"
1$
b0011 )
#3350000
0"
0$
#3400000
1"
1$
b0100 )
#3450000
0"
0$
#3500000
1"
1$
b0101 )
#3550000
0"
0$
#3600000
1"
1$
b0110 )
#3650000
0"
0$
#3700000
1"
1$
b0111 )
#3750000
0"
0$
#3800000
1"
1$
b1000 )
#3850000
0"
0$
#3900000
1"
1$
b1001 )
#3950000
0"
0$
#4000000
1"
1$
0(
b0000 )
0!
#4050000
0"
0$
#4100000
1"
1$
b0001 )
#4150000
0"
0$
#4200000
1"
1$
b0010 )
#4250000
0"
0$
#4300000
1"
1$
b0011 )
#4350000
0"
0$
#4400000
1"
1$
b0100 )
#4450000
0"
0$
#4500000
1"
1$
b0101 )
#4550000
0"
0$
#4600000
1"
1$
b0110 )
#4650000
0"
0$
#4700000
1"
1$
b0111 )
#4750000
0"
0$
#4800000
1"
1$
b1000 )
#4850000
0"
0$
#4900000
1"
1$
b1001 )
#4950000
0"
0$
#5000000
1"
1$
1(
b0000 )
1!
#5050000
0"
0$
#5100000
1"
1$
b0001 )
#5150000
0"
0$
#5200000
1"
1$
b0010 )
#5250000
0"
0$
#5300000
1"
1$
b0011 )
#5350000
0"
0$
#5400000
1"
1$
b0100 )
#5450000
0"
0$
#5500000
1"
1$
b0101 )
#5550000
0"
0$
#5600000
1"
1$
b0110 )
#5650000
0"
0$
#5700000
1"
1$
b0111 )
#5750000
0"
0$
#5800000
1"
1$
b1000 )
#5850000
0"
0$
#5900000
1"
1$
b1001 )
#5950000
0"
0$
#6000000
1"
1$
0(
b0000 )
0!
#6050000
0"
0$
#6100000
1"
1$
b0001 )
#6150000
0"
0$
#6200000
1"
1$
b0010 )
#6250000
0"
0$
#6300000
1"
1$
b0011 )
#6350000
0"
0$
#6400000
1"
1$
b0100 )
#6450000
0"
0$
#6500000
1"
1$
b0101 )
#6550000
0"
0$
#6600000
1"
1$
b0110 )
#6650000
0"
0$
#6700000
1"
1$
b0111 )
#6750000
0"
0$
#6800000
1"
1$
b1000 )
#6850000
0"
0$
#6900000
1"
1$
b1001 )
#6950000
0"
0$
#7000000
1"
1$
1(
b0000 )
1!
#7050000
0"
0$
#7100000
1"
1$
b0001 )
#7150000
0"
0$
#7200000
1"
1$
b0010 )
#7250000
0"
0$
#7300000
1"
1$
b0011 )
#7350000
0"
0$
#7400000
1"
1$
b0100 )
#7450000
0"
0$
#7500000
1"
1$
b0101 )
#7550000
0"
0$
#7600000
1"
1$
b0110 )
#7650000
0"
0$
#7700000
1"
1$
b0111 )
#7750000
0"
0$
#7800000
1"
1$
b1000 )
#7850000
0"
0$
#7900000
1"
1$
b1001 )
#7950000
0"
0$
#8000000
1"
1$
0(
b0000 )
0!
#8050000
0"
0$
#8100000
1"
1$
b0001 )
#8150000
0"
0$
#8200000
1"
1$
b0010 )
#8250000
0"
0$
#8300000
1"
1$
b0011 )
#8350000
0"
0$
#8400000
1"
1$
b0100 )
#8450000
0"
0$
#8500000
1"
1$
b0101 )
#8550000
0"
0$
#8600000
1"
1$
b0110 )
#8650000
0"
0$
#8700000
1"
1$
b0111 )
#8750000
0"
0$
#8800000
1"
1$
b1000 )
#8850000
0"
0$
#8900000
1"
1$
b1001 )
#8950000
0"
0$
#9000000
1"
1$
1(
b0000 )
1!
#9050000
0"
0$
#9100000
1"
1$
b0001 )
#9150000
0"
0$
#9200000
1"
1$
b0010 )
#9250000
0"
0$
#9300000
1"
1$
b0011 )
#9350000
0"
0$
#9400000
1"
1$
b0100 )
#9450000
0"
0$
#9500000
1"
1$
b0101 )
#9550000
0"
0$
#9600000
1"
1$
b0110 )
#9650000
0"
0$
#9700000
1"
1$
b0111 )
#9750000
0"
0$
#9800000
1"
1$
b1000 )
#9850000
0"
0$
#9900000
1"
1$
b1001 )
#9950000
0"
0$
#10000000
1"
1$
0(
b0000 )
0!
#10020000
0#
