spi_final/verilog.log
Host command: /cds/2013/INCISIV121/tools/verilog/bin/verilog.exe
Command arguments:
    asy_fifo_output.v
    asy_fifo_output_test.v

Tool:	VERILOG-XL	08.20.001-d log file created Jul 19, 2016  14:59:44
Tool:	VERILOG-XL	08.20.001-d   Jul 19, 2016  14:59:44

Copyright (c) 1995-2004 Cadence Design Systems, Inc.  All Rights Reserved.
Unpublished -- rights reserved under the copyright laws of the United States.

Copyright (c) 1995-2004 UNIX Systems Laboratories, Inc.  Reproduced with Permission.

THIS SOFTWARE AND ON-LINE DOCUMENTATION CONTAIN CONFIDENTIAL INFORMATION
AND TRADE SECRETS OF CADENCE DESIGN SYSTEMS, INC.  USE, DISCLOSURE, OR
REPRODUCTION IS PROHIBITED WITHOUT THE PRIOR EXPRESS WRITTEN PERMISSION OF
CADENCE DESIGN SYSTEMS, INC.
RESTRICTED RIGHTS LEGEND

Use, duplication, or disclosure by the Government is subject to
restrictions as set forth in subparagraph (c)(1)(ii) of the Rights in
Technical Data and Computer Software clause at DFARS 252.227-7013 or
subparagraphs (c)(1) and (2) of Commercial Computer Software -- Restricted
Rights at 48 CFR 52.227-19, as applicable.

                Cadence Design Systems, Inc.
                555 River Oaks Parkway
                San Jose, California  95134

For technical assistance please contact the Cadence Response Center at
1-877-CDS-4911 or send email to support@cadence.com

For more information on Cadence's Verilog-XL product line send email to
talkv@cadence.com

Compiling source file "asy_fifo_output.v"
Compiling source file "asy_fifo_output_test.v"
Highest level modules:
asy_fifo_output_test

at time 50 clk = 0   control_clk_miso = 1 rst= 0  read_req=0 wdata=  x  datat_out=000000000000000000000000000000000000000000000000000000000000000000000000000000000000000000000000000000000000000000000000 
at time 100 clk = 1   control_clk_miso = 0 rst= 1  read_req=0 wdata=  1  datat_out=000000000000000000000000000000000000000000000000000000000000000000000000000000000000000000000000000000000000000000000000 
at time 150 clk = 0   control_clk_miso = 1 rst= 1  read_req=0 wdata=  2  datat_out=000000000000000000000000000000000000000000000000000000000000000000000000000000000000000000000000000000000000000000000000 
at time 200 clk = 1   control_clk_miso = 0 rst= 1  read_req=0 wdata=  2  datat_out=000000000000000000000000000000000000000000000000000000000000000000000000000000000000000000000000000000000000000000000000 
at time 250 clk = 0   control_clk_miso = 1 rst= 1  read_req=0 wdata= 20  datat_out=000000000000000000000000000000000000000000000000000000000000000000000000000000000000000000000000000000000000000000000000 
at time 300 clk = 1   control_clk_miso = 0 rst= 1  read_req=0 wdata= 20  datat_out=000000000000000000000000000000000000000000000000000000000000000000000000000000000000000000000000000000000000000000000000 
at time 350 clk = 0   control_clk_miso = 1 rst= 1  read_req=0 wdata= 30  datat_out=000000000000000000000000000000000000000000000000000000000000000000000000000000000000000000000000000000000000000000000000 
at time 400 clk = 1   control_clk_miso = 0 rst= 1  read_req=1 wdata= 30  datat_out=000000000000000000000000000000000000000000000000000000000000000000000000000000000000000000000000000000000000000000000000 
at time 450 clk = 0   control_clk_miso = 1 rst= 1  read_req=0 wdata= 40  datat_out=000000000000000000000000000000000000000000000000000000000000000000000000000000000000000000000000000000000000000000000000 
at time 500 clk = 1   control_clk_miso = 0 rst= 1  read_req=0 wdata= 40  datat_out=000000000000000000000000000000000000000000000000000000000000000000000000000000000000000000000000000000000000000000000000 
at time 550 clk = 0   control_clk_miso = 1 rst= 1  read_req=0 wdata= 50  datat_out=000000000000000000000000000000000000000000000000000000000000000000000000000000000000000000000000000000000000000000000000 
at time 600 clk = 1   control_clk_miso = 0 rst= 1  read_req=0 wdata= 50  datat_out=000000000000000000000000000000000000000000000000000000000000000000000000000000000000000000000000000000000000000000000000 
at time 650 clk = 0   control_clk_miso = 1 rst= 1  read_req=0 wdata= 60  datat_out=000000000000000000000000000000000000000000000000000000000000000000000000000000000000000000000000000000000000000000000000 
at time 700 clk = 1   control_clk_miso = 0 rst= 1  read_req=0 wdata= 60  datat_out=000000000000000000000000000000000000000000000000000000000000000000000000000000000000000000000000000000000000000000000000 
at time 750 clk = 0   control_clk_miso = 1 rst= 1  read_req=0 wdata= 70  datat_out=000000000000000000000000000000000000000000000000000000000000000000000000000000000000000000000000000000000000000000000000 
at time 800 clk = 1   control_clk_miso = 0 rst= 1  read_req=0 wdata= 70  datat_out=000000000000000000000000000000000000000000000000000000000000000000000000000000000000000000000000000000000000000000000000 
at time 850 clk = 0   control_clk_miso = 1 rst= 1  read_req=0 wdata=100  datat_out=000000000000000000000000000000000000000000000000000000000000000000000000000000000000000000000000000000000000000000000000 
at time 900 clk = 1   control_clk_miso = 0 rst= 1  read_req=0 wdata=100  datat_out=000000000000000000000000000000000000000000000000000000000000000000000000000000000000000000000000000000000000000000000000 
at time 950 clk = 0   control_clk_miso = 1 rst= 1  read_req=0 wdata=120  datat_out=000000000000000000000000000000000000000000000000000000000000000000000000000000000000000000000000000000000000000000000000 
at time 1000 clk = 1   control_clk_miso = 0 rst= 1  read_req=0 wdata=120  datat_out=000000000000000000000000000000000000000000000000000000000000000000000000000000000000000000000000000000000000000000000000 
at time 1050 clk = 0   control_clk_miso = 1 rst= 1  read_req=0 wdata=130  datat_out=000000000000000000000000000000000000000000000000000000000000000000000000000000000000000000000000000000000000000000000000 
at time 1100 clk = 1   control_clk_miso = 0 rst= 1  read_req=0 wdata=130  datat_out=000000000000000000000000000000000000000000000000000000000000000000000000000000000000000000000000000000000000000000000000 
at time 1150 clk = 0   control_clk_miso = 1 rst= 1  read_req=0 wdata=140  datat_out=000000000000000000000000000000000000000000000000000000000000000000000000000000000000000000000000000000000000000000000000 
at time 1200 clk = 1   control_clk_miso = 0 rst= 1  read_req=0 wdata=140  datat_out=000000000000000000000000000000000000000000000000000000000000000000000000000000000000000000000000000000000000000000000000 
at time 1250 clk = 0   control_clk_miso = 1 rst= 1  read_req=0 wdata=150  datat_out=000000000000000000000000000000000000000000000000000000000000000000000000000000000000000000000000000000000000000000000000 
at time 1300 clk = 1   control_clk_miso = 0 rst= 1  read_req=0 wdata=150  datat_out=000000000000000000000000000000000000000000000000000000000000000000000000000000000000000000000000000000000000000000000000 
at time 1350 clk = 0   control_clk_miso = 1 rst= 1  read_req=0 wdata=150  datat_out=000000000000000000000000000000000000000000000000000000000000000000000000000000000000000000000000000000000000000000000000 
at time 1400 clk = 1   control_clk_miso = 0 rst= 1  read_req=0 wdata=150  datat_out=000000000000000000000000000000000000000000000000000000000000000000000000000000000000000000000000000000000000000000000000 
at time 1450 clk = 0   control_clk_miso = 1 rst= 1  read_req=1 wdata=150  datat_out=000000000000000000000000000000000000000000000000000000000000000000000000000000000000000000000000000000000000000000000000 
at time 1500 clk = 1   control_clk_miso = 0 rst= 1  read_req=0 wdata=150  datat_out=000000000000000000000000000000000000000000000000000000000000000000000000000000000000000000000000000000000000000000000000 
at time 1550 clk = 0   control_clk_miso = 1 rst= 1  read_req=0 wdata=150  datat_out=000000000000000000000000000000000000000000000000000000000000000000000000000000000000000000000000000000000000000000000000 
at time 1600 clk = 1   control_clk_miso = 0 rst= 1  read_req=0 wdata=150  datat_out=000000000000000000000000000000000000000000000000000000000000000000000000000000000000000000000000000000000000000000000000 
at time 1650 clk = 0   control_clk_miso = 1 rst= 1  read_req=0 wdata=150  datat_out=000000000000000000000000000000000000000000000000000000000000000000000000000000000000000000000000000000000000000000000000 
at time 1700 clk = 1   control_clk_miso = 0 rst= 1  read_req=0 wdata=150  datat_out=000000000000000000000000000000000000000000000000000000000000000000000000000000000000000000000000000000000000000000000000 
at time 1750 clk = 0   control_clk_miso = 1 rst= 1  read_req=0 wdata=150  datat_out=000000000000000000000000000000000000000000000000000000000000000000000000000000000000000000000000000000000000000000000000 
at time 1800 clk = 1   control_clk_miso = 0 rst= 1  read_req=0 wdata=150  datat_out=000000000000000000000000000000000000000000000000000000000000000000000000000000000000000000000000000000000000000000000000 
at time 1850 clk = 0   control_clk_miso = 1 rst= 1  read_req=0 wdata=150  datat_out=000000000000000000000000000000000000000000000000000000000000000000000000000000000000000000000000000000000000000000000000 
at time 1900 clk = 1   control_clk_miso = 0 rst= 1  read_req=0 wdata=150  datat_out=000000000000000000000000000000000000000000000000000000000000000000000000000000000000000000000000000000000000000000000000 
at time 1950 clk = 0   control_clk_miso = 1 rst= 1  read_req=0 wdata=150  datat_out=000000000000000000000000000000000000000000000000000000000000000000000000000000000000000000000000000000000000000000000000 
at time 2000 clk = 1   control_clk_miso = 0 rst= 1  read_req=0 wdata=150  datat_out=000000000000000000000000000000000000000000000000000000000000000000000000000000000000000000000000000000000000000000000000 
at time 2050 clk = 0   control_clk_miso = 1 rst= 1  read_req=0 wdata=150  datat_out=000000000000000000000000000000000000000000000000000000000000000000000000000000000000000000000000000000000000000000000000 
at time 2100 clk = 1   control_clk_miso = 0 rst= 1  read_req=0 wdata=150  datat_out=000000000000000000000000000000000000000000000000000000000000000000000000000000000000000000000000000000000000000000000000 
at time 2150 clk = 0   control_clk_miso = 1 rst= 1  read_req=0 wdata=150  datat_out=000000000000000000000000000000000000000000000000000000000000000000000000000000000000000000000000000000000000000000000000 
at time 2200 clk = 1   control_clk_miso = 0 rst= 1  read_req=0 wdata=150  datat_out=000000000000000000000000000000000000000000000000000000000000000000000000000000000000000000000000000000000000000000000000 
at time 2250 clk = 0   control_clk_miso = 1 rst= 1  read_req=0 wdata=150  datat_out=000000000000000000000000000000000000000000000000000000000000000000000000000000000000000000000000000000000000000000000000 
at time 2300 clk = 1   control_clk_miso = 0 rst= 1  read_req=0 wdata=150  datat_out=000000000000000000000000000000000000000000000000000000000000000000000000000000000000000000000000000000000000000000000000 
at time 2350 clk = 0   control_clk_miso = 1 rst= 1  read_req=0 wdata=150  datat_out=000000000000000000000000000000000000000000000000000000000000000000000000000000000000000000000000000000000000000000000000 
at time 2400 clk = 1   control_clk_miso = 0 rst= 1  read_req=0 wdata=150  datat_out=000000000000000000000000000000000000000000000000000000000000000000000000000000000000000000000000000000000000000000000000 
at time 2450 clk = 0   control_clk_miso = 1 rst= 1  read_req=0 wdata=150  datat_out=000000000000000000000000000000000000000000000000000000000000000000000000000000000000000000000000000000000000000000000000 
at time 2500 clk = 1   control_clk_miso = 0 rst= 1  read_req=1 wdata=150  datat_out=000000000000000000000000000000000000000000000000000000000000000000000000000000000000000000000000000000000000000000000000 
at time 2530 rdata=00000001
at time 2550 clk = 0   control_clk_miso = 1 rst= 1  read_req=0 wdata=150  datat_out=000000000000000000000000000000000000000000000000000000000000000000000000000000000000000000000000000000000000000000000000 
at time 2550 rdata=00000010
at time 2570 rdata=00010100
at time 2590 rdata=00011110
at time 2600 clk = 1   control_clk_miso = 0 rst= 1  read_req=0 wdata=150  datat_out=000000000000000000000000000000000000000000000000000000000000000000000000000000000000000000000000000000000000000000000000 
at time 2610 rdata=00101000
at time 2630 rdata=00110010
at time 2650 clk = 0   control_clk_miso = 1 rst= 1  read_req=0 wdata=150  datat_out=000000000000000000000000000000000000000000000000000000000000000000000000000000000000000000000000000000000000000000000000 
at time 2650 rdata=00111100
at time 2670 rdata=01000110
at time 2690 rdata=01100100
at time 2700 clk = 1   control_clk_miso = 0 rst= 1  read_req=0 wdata=150  datat_out=000000000000000000000000000000000000000000000000000000000000000000000000000000000000000000000000000000000000000000000000 
at time 2710 rdata=01111000
at time 2730 rdata=10000010
at time 2750 clk = 0   control_clk_miso = 1 rst= 1  read_req=0 wdata=150  datat_out=000000000000000000000000000000000000000000000000000000000000000000000000000000000000000000000000000000000000000000000000 
at time 2750 rdata=10001100
at time 2770 rdata=10010110
at time 2790 rdata=10010110
at time 2800 clk = 1   control_clk_miso = 0 rst= 1  read_req=0 wdata=150  datat_out=000000000000000000000000000000000000000000000000000000000000000000000000000000000000000000000000000000000000000000000000 
at time 2810 rdata=10010110
at time 2830 rempty=1
at time 2830 data_out=100101101001011010010110100011001000001001111000011001000100011000111100001100100010100000011110000101000000001000000001
at time 2850 clk = 0   control_clk_miso = 1 rst= 1  read_req=0 wdata=150  datat_out=100101101001011010010110100011001000001001111000011001000100011000111100001100100010100000011110000101000000001000000001 
at time 2900 clk = 1   control_clk_miso = 0 rst= 1  read_req=0 wdata=150  datat_out=100101101001011010010110100011001000001001111000011001000100011000111100001100100010100000011110000101000000001000000001 
at time 2950 clk = 0   control_clk_miso = 1 rst= 1  read_req=0 wdata=150  datat_out=100101101001011010010110100011001000001001111000011001000100011000111100001100100010100000011110000101000000001000000001 
at time 3000 clk = 1   control_clk_miso = 0 rst= 1  read_req=0 wdata=150  datat_out=100101101001011010010110100011001000001001111000011001000100011000111100001100100010100000011110000101000000001000000001 
at time 3050 clk = 0   control_clk_miso = 1 rst= 1  read_req=0 wdata=150  datat_out=100101101001011010010110100011001000001001111000011001000100011000111100001100100010100000011110000101000000001000000001 
at time 3100 clk = 1   control_clk_miso = 0 rst= 1  read_req=0 wdata=150  datat_out=100101101001011010010110100011001000001001111000011001000100011000111100001100100010100000011110000101000000001000000001 
at time 3150 clk = 0   control_clk_miso = 1 rst= 1  read_req=0 wdata=150  datat_out=100101101001011010010110100011001000001001111000011001000100011000111100001100100010100000011110000101000000001000000001 
at time 3200 clk = 1   control_clk_miso = 0 rst= 1  read_req=0 wdata=150  datat_out=100101101001011010010110100011001000001001111000011001000100011000111100001100100010100000011110000101000000001000000001 
at time 3250 clk = 0   control_clk_miso = 1 rst= 1  read_req=0 wdata=150  datat_out=100101101001011010010110100011001000001001111000011001000100011000111100001100100010100000011110000101000000001000000001 
at time 3300 clk = 1   control_clk_miso = 0 rst= 1  read_req=0 wdata=150  datat_out=100101101001011010010110100011001000001001111000011001000100011000111100001100100010100000011110000101000000001000000001 
at time 3350 clk = 0   control_clk_miso = 1 rst= 1  read_req=0 wdata=150  datat_out=100101101001011010010110100011001000001001111000011001000100011000111100001100100010100000011110000101000000001000000001 
at time 3400 clk = 1   control_clk_miso = 0 rst= 1  read_req=0 wdata=150  datat_out=100101101001011010010110100011001000001001111000011001000100011000111100001100100010100000011110000101000000001000000001 
at time 3450 clk = 0   control_clk_miso = 1 rst= 1  read_req=0 wdata=150  datat_out=100101101001011010010110100011001000001001111000011001000100011000111100001100100010100000011110000101000000001000000001 
at time 3500 clk = 1   control_clk_miso = 0 rst= 1  read_req=0 wdata=150  datat_out=100101101001011010010110100011001000001001111000011001000100011000111100001100100010100000011110000101000000001000000001 
at time 3550 clk = 0   control_clk_miso = 1 rst= 1  read_req=0 wdata=150  datat_out=100101101001011010010110100011001000001001111000011001000100011000111100001100100010100000011110000101000000001000000001 
at time 3600 clk = 1   control_clk_miso = 0 rst= 1  read_req=0 wdata=150  datat_out=100101101001011010010110100011001000001001111000011001000100011000111100001100100010100000011110000101000000001000000001 
at time 3650 clk = 0   control_clk_miso = 1 rst= 1  read_req=0 wdata=150  datat_out=100101101001011010010110100011001000001001111000011001000100011000111100001100100010100000011110000101000000001000000001 
at time 3700 clk = 1   control_clk_miso = 0 rst= 1  read_req=0 wdata=150  datat_out=100101101001011010010110100011001000001001111000011001000100011000111100001100100010100000011110000101000000001000000001 
at time 3750 clk = 0   control_clk_miso = 1 rst= 1  read_req=0 wdata=150  datat_out=100101101001011010010110100011001000001001111000011001000100011000111100001100100010100000011110000101000000001000000001 
at time 3800 clk = 1   control_clk_miso = 0 rst= 1  read_req=0 wdata=150  datat_out=100101101001011010010110100011001000001001111000011001000100011000111100001100100010100000011110000101000000001000000001 
at time 3850 clk = 0   control_clk_miso = 1 rst= 1  read_req=0 wdata=150  datat_out=100101101001011010010110100011001000001001111000011001000100011000111100001100100010100000011110000101000000001000000001 
at time 3900 clk = 1   control_clk_miso = 0 rst= 1  read_req=0 wdata=150  datat_out=100101101001011010010110100011001000001001111000011001000100011000111100001100100010100000011110000101000000001000000001 
at time 3950 clk = 0   control_clk_miso = 1 rst= 1  read_req=0 wdata=150  datat_out=100101101001011010010110100011001000001001111000011001000100011000111100001100100010100000011110000101000000001000000001 
at time 4000 clk = 1   control_clk_miso = 0 rst= 1  read_req=0 wdata=150  datat_out=100101101001011010010110100011001000001001111000011001000100011000111100001100100010100000011110000101000000001000000001 
at time 4050 clk = 0   control_clk_miso = 1 rst= 1  read_req=0 wdata=150  datat_out=100101101001011010010110100011001000001001111000011001000100011000111100001100100010100000011110000101000000001000000001 
at time 4100 clk = 1   control_clk_miso = 0 rst= 1  read_req=0 wdata=150  datat_out=100101101001011010010110100011001000001001111000011001000100011000111100001100100010100000011110000101000000001000000001 
at time 4150 clk = 0   control_clk_miso = 1 rst= 1  read_req=0 wdata=150  datat_out=100101101001011010010110100011001000001001111000011001000100011000111100001100100010100000011110000101000000001000000001 
at time 4200 clk = 1   control_clk_miso = 0 rst= 1  read_req=0 wdata=150  datat_out=100101101001011010010110100011001000001001111000011001000100011000111100001100100010100000011110000101000000001000000001 
at time 4250 clk = 0   control_clk_miso = 1 rst= 1  read_req=0 wdata=150  datat_out=100101101001011010010110100011001000001001111000011001000100011000111100001100100010100000011110000101000000001000000001 
at time 4300 clk = 1   control_clk_miso = 0 rst= 1  read_req=0 wdata=150  datat_out=100101101001011010010110100011001000001001111000011001000100011000111100001100100010100000011110000101000000001000000001 
at time 4350 clk = 0   control_clk_miso = 1 rst= 1  read_req=0 wdata=150  datat_out=100101101001011010010110100011001000001001111000011001000100011000111100001100100010100000011110000101000000001000000001 
at time 4400 clk = 1   control_clk_miso = 0 rst= 1  read_req=0 wdata=150  datat_out=100101101001011010010110100011001000001001111000011001000100011000111100001100100010100000011110000101000000001000000001 
at time 4450 clk = 0   control_clk_miso = 1 rst= 1  read_req=0 wdata=150  datat_out=100101101001011010010110100011001000001001111000011001000100011000111100001100100010100000011110000101000000001000000001 
at time 4470 rdata=10010110
at time 4490 rdata=10010110
at time 4500 clk = 1   control_clk_miso = 0 rst= 1  read_req=0 wdata=150  datat_out=100101101001011010010110100011001000001001111000011001000100011000111100001100100010100000011110000101000000001000000001 
at time 4510 rdata=10010110
at time 4530 rdata=10010110
at time 4550 clk = 0   control_clk_miso = 1 rst= 1  read_req=0 wdata=150  datat_out=100101101001011010010110100011001000001001111000011001000100011000111100001100100010100000011110000101000000001000000001 
at time 4550 rdata=10010110
at time 4570 rdata=10010110
at time 4590 rdata=10010110
at time 4600 clk = 1   control_clk_miso = 0 rst= 1  read_req=0 wdata=150  datat_out=100101101001011010010110100011001000001001111000011001000100011000111100001100100010100000011110000101000000001000000001 
at time 4610 rdata=10010110
at time 4630 rdata=10010110
at time 4650 clk = 0   control_clk_miso = 1 rst= 1  read_req=0 wdata=150  datat_out=100101101001011010010110100011001000001001111000011001000100011000111100001100100010100000011110000101000000001000000001 
at time 4650 rdata=10010110
at time 4670 rdata=10010110
at time 4690 rdata=10010110
at time 4700 clk = 1   control_clk_miso = 0 rst= 1  read_req=0 wdata=150  datat_out=100101101001011010010110100011001000001001111000011001000100011000111100001100100010100000011110000101000000001000000001 
at time 4710 rdata=10010110
at time 4730 rdata=10010110
at time 4750 clk = 0   control_clk_miso = 1 rst= 1  read_req=0 wdata=150  datat_out=100101101001011010010110100011001000001001111000011001000100011000111100001100100010100000011110000101000000001000000001 
at time 4750 rdata=10010110
at time 4750 data_out=100101101001011010010110100101101001011010010110100101101001011010010110100101101001011010010110100101101001011010010110
at time 4770 data_out=100101101001011010010110100101101001011010010110100101101001011010010110100101101001011010010110100101101001011010010110
at time 4770 rempty=1
at time 4800 clk = 1   control_clk_miso = 0 rst= 1  read_req=0 wdata=150  datat_out=100101101001011010010110100101101001011010010110100101101001011010010110100101101001011010010110100101101001011010010110 
at time 4850 clk = 0   control_clk_miso = 1 rst= 1  read_req=0 wdata=150  datat_out=100101101001011010010110100101101001011010010110100101101001011010010110100101101001011010010110100101101001011010010110 
at time 4900 clk = 1   control_clk_miso = 0 rst= 1  read_req=0 wdata=150  datat_out=100101101001011010010110100101101001011010010110100101101001011010010110100101101001011010010110100101101001011010010110 
at time 4950 clk = 0   control_clk_miso = 1 rst= 1  read_req=0 wdata=150  datat_out=100101101001011010010110100101101001011010010110100101101001011010010110100101101001011010010110100101101001011010010110 
at time 5000 clk = 1   control_clk_miso = 0 rst= 1  read_req=0 wdata=150  datat_out=100101101001011010010110100101101001011010010110100101101001011010010110100101101001011010010110100101101001011010010110 
at time 5050 clk = 0   control_clk_miso = 1 rst= 1  read_req=0 wdata=150  datat_out=100101101001011010010110100101101001011010010110100101101001011010010110100101101001011010010110100101101001011010010110 
at time 5100 clk = 1   control_clk_miso = 0 rst= 1  read_req=0 wdata=150  datat_out=100101101001011010010110100101101001011010010110100101101001011010010110100101101001011010010110100101101001011010010110 
at time 5150 clk = 0   control_clk_miso = 1 rst= 1  read_req=0 wdata=150  datat_out=100101101001011010010110100101101001011010010110100101101001011010010110100101101001011010010110100101101001011010010110 
at time 5200 clk = 1   control_clk_miso = 0 rst= 1  read_req=0 wdata=150  datat_out=100101101001011010010110100101101001011010010110100101101001011010010110100101101001011010010110100101101001011010010110 
at time 5250 clk = 0   control_clk_miso = 1 rst= 1  read_req=1 wdata=150  datat_out=100101101001011010010110100101101001011010010110100101101001011010010110100101101001011010010110100101101001011010010110 
at time 5300 clk = 1   control_clk_miso = 0 rst= 1  read_req=1 wdata=150  datat_out=100101101001011010010110100101101001011010010110100101101001011010010110100101101001011010010110100101101001011010010110 
at time 5350 clk = 0   control_clk_miso = 1 rst= 1  read_req=1 wdata= 55  datat_out=100101101001011010010110100101101001011010010110100101101001011010010110100101101001011010010110100101101001011010010110 
at time 5400 clk = 1   control_clk_miso = 0 rst= 1  read_req=1 wdata= 55  datat_out=100101101001011010010110100101101001011010010110100101101001011010010110100101101001011010010110100101101001011010010110 
at time 5450 clk = 0   control_clk_miso = 1 rst= 1  read_req=1 wdata=200  datat_out=100101101001011010010110100101101001011010010110100101101001011010010110100101101001011010010110100101101001011010010110 
at time 5500 clk = 1   control_clk_miso = 0 rst= 1  read_req=1 wdata=200  datat_out=100101101001011010010110100101101001011010010110100101101001011010010110100101101001011010010110100101101001011010010110 
at time 5550 clk = 0   control_clk_miso = 1 rst= 1  read_req=1 wdata= 15  datat_out=100101101001011010010110100101101001011010010110100101101001011010010110100101101001011010010110100101101001011010010110 
at time 5600 clk = 1   control_clk_miso = 0 rst= 1  read_req=1 wdata= 15  datat_out=100101101001011010010110100101101001011010010110100101101001011010010110100101101001011010010110100101101001011010010110 
at time 5650 clk = 0   control_clk_miso = 1 rst= 1  read_req=1 wdata= 16  datat_out=100101101001011010010110100101101001011010010110100101101001011010010110100101101001011010010110100101101001011010010110 
at time 5700 clk = 1   control_clk_miso = 0 rst= 1  read_req=1 wdata= 16  datat_out=100101101001011010010110100101101001011010010110100101101001011010010110100101101001011010010110100101101001011010010110 
at time 5750 clk = 0   control_clk_miso = 1 rst= 1  read_req=1 wdata= 17  datat_out=100101101001011010010110100101101001011010010110100101101001011010010110100101101001011010010110100101101001011010010110 
at time 5800 clk = 1   control_clk_miso = 0 rst= 1  read_req=1 wdata= 17  datat_out=100101101001011010010110100101101001011010010110100101101001011010010110100101101001011010010110100101101001011010010110 
at time 5850 clk = 0   control_clk_miso = 1 rst= 1  read_req=1 wdata= 18  datat_out=100101101001011010010110100101101001011010010110100101101001011010010110100101101001011010010110100101101001011010010110 
at time 5900 clk = 1   control_clk_miso = 0 rst= 1  read_req=1 wdata= 18  datat_out=100101101001011010010110100101101001011010010110100101101001011010010110100101101001011010010110100101101001011010010110 
at time 5950 clk = 0   control_clk_miso = 1 rst= 1  read_req=1 wdata= 19  datat_out=100101101001011010010110100101101001011010010110100101101001011010010110100101101001011010010110100101101001011010010110 
at time 6000 clk = 1   control_clk_miso = 0 rst= 1  read_req=1 wdata= 19  datat_out=100101101001011010010110100101101001011010010110100101101001011010010110100101101001011010010110100101101001011010010110 
at time 6050 clk = 0   control_clk_miso = 1 rst= 1  read_req=1 wdata= 20  datat_out=100101101001011010010110100101101001011010010110100101101001011010010110100101101001011010010110100101101001011010010110 
at time 6100 clk = 1   control_clk_miso = 0 rst= 1  read_req=1 wdata= 20  datat_out=100101101001011010010110100101101001011010010110100101101001011010010110100101101001011010010110100101101001011010010110 
at time 6150 clk = 0   control_clk_miso = 1 rst= 1  read_req=1 wdata= 20  datat_out=100101101001011010010110100101101001011010010110100101101001011010010110100101101001011010010110100101101001011010010110 
at time 6200 clk = 1   control_clk_miso = 0 rst= 1  read_req=1 wdata= 20  datat_out=100101101001011010010110100101101001011010010110100101101001011010010110100101101001011010010110100101101001011010010110 
at time 6250 clk = 0   control_clk_miso = 1 rst= 1  read_req=1 wdata= 20  datat_out=100101101001011010010110100101101001011010010110100101101001011010010110100101101001011010010110100101101001011010010110 
at time 6300 clk = 1   control_clk_miso = 0 rst= 1  read_req=1 wdata= 20  datat_out=100101101001011010010110100101101001011010010110100101101001011010010110100101101001011010010110100101101001011010010110 
at time 6350 clk = 0   control_clk_miso = 1 rst= 1  read_req=1 wdata= 20  datat_out=100101101001011010010110100101101001011010010110100101101001011010010110100101101001011010010110100101101001011010010110 
at time 6400 clk = 1   control_clk_miso = 0 rst= 1  read_req=1 wdata= 20  datat_out=100101101001011010010110100101101001011010010110100101101001011010010110100101101001011010010110100101101001011010010110 
at time 6450 clk = 0   control_clk_miso = 1 rst= 1  read_req=1 wdata= 20  datat_out=100101101001011010010110100101101001011010010110100101101001011010010110100101101001011010010110100101101001011010010110 
at time 6500 clk = 1   control_clk_miso = 0 rst= 1  read_req=1 wdata= 20  datat_out=100101101001011010010110100101101001011010010110100101101001011010010110100101101001011010010110100101101001011010010110 
at time 6550 clk = 0   control_clk_miso = 1 rst= 1  read_req=1 wdata= 20  datat_out=100101101001011010010110100101101001011010010110100101101001011010010110100101101001011010010110100101101001011010010110 
at time 6600 clk = 1   control_clk_miso = 0 rst= 1  read_req=1 wdata= 20  datat_out=100101101001011010010110100101101001011010010110100101101001011010010110100101101001011010010110100101101001011010010110 
at time 6650 clk = 0   control_clk_miso = 1 rst= 1  read_req=1 wdata= 20  datat_out=100101101001011010010110100101101001011010010110100101101001011010010110100101101001011010010110100101101001011010010110 
at time 6700 clk = 1   control_clk_miso = 0 rst= 1  read_req=1 wdata= 20  datat_out=100101101001011010010110100101101001011010010110100101101001011010010110100101101001011010010110100101101001011010010110 
at time 6750 clk = 0   control_clk_miso = 1 rst= 1  read_req=1 wdata= 20  datat_out=100101101001011010010110100101101001011010010110100101101001011010010110100101101001011010010110100101101001011010010110 
at time 6800 clk = 1   control_clk_miso = 0 rst= 1  read_req=1 wdata= 20  datat_out=100101101001011010010110100101101001011010010110100101101001011010010110100101101001011010010110100101101001011010010110 
at time 6850 clk = 0   control_clk_miso = 1 rst= 1  read_req=1 wdata= 20  datat_out=100101101001011010010110100101101001011010010110100101101001011010010110100101101001011010010110100101101001011010010110 
at time 6900 clk = 1   control_clk_miso = 0 rst= 1  read_req=1 wdata= 20  datat_out=100101101001011010010110100101101001011010010110100101101001011010010110100101101001011010010110100101101001011010010110 
at time 6950 clk = 0   control_clk_miso = 1 rst= 1  read_req=1 wdata= 20  datat_out=100101101001011010010110100101101001011010010110100101101001011010010110100101101001011010010110100101101001011010010110 
at time 7000 clk = 1   control_clk_miso = 0 rst= 1  read_req=1 wdata= 20  datat_out=100101101001011010010110100101101001011010010110100101101001011010010110100101101001011010010110100101101001011010010110 
at time 7050 clk = 0   control_clk_miso = 1 rst= 1  read_req=1 wdata= 20  datat_out=100101101001011010010110100101101001011010010110100101101001011010010110100101101001011010010110100101101001011010010110 
at time 7100 clk = 1   control_clk_miso = 0 rst= 1  read_req=1 wdata= 20  datat_out=100101101001011010010110100101101001011010010110100101101001011010010110100101101001011010010110100101101001011010010110 
at time 7150 clk = 0   control_clk_miso = 1 rst= 1  read_req=1 wdata= 20  datat_out=100101101001011010010110100101101001011010010110100101101001011010010110100101101001011010010110100101101001011010010110 
at time 7200 clk = 1   control_clk_miso = 0 rst= 1  read_req=1 wdata= 20  datat_out=100101101001011010010110100101101001011010010110100101101001011010010110100101101001011010010110100101101001011010010110 
at time 7250 clk = 0   control_clk_miso = 1 rst= 1  read_req=1 wdata= 20  datat_out=100101101001011010010110100101101001011010010110100101101001011010010110100101101001011010010110100101101001011010010110 
at time 7300 clk = 1   control_clk_miso = 0 rst= 1  read_req=1 wdata= 20  datat_out=100101101001011010010110100101101001011010010110100101101001011010010110100101101001011010010110100101101001011010010110 
at time 7350 clk = 0   control_clk_miso = 1 rst= 1  read_req=1 wdata= 20  datat_out=100101101001011010010110100101101001011010010110100101101001011010010110100101101001011010010110100101101001011010010110 
at time 7400 clk = 1   control_clk_miso = 0 rst= 1  read_req=1 wdata= 20  datat_out=100101101001011010010110100101101001011010010110100101101001011010010110100101101001011010010110100101101001011010010110 
at time 7450 clk = 0   control_clk_miso = 1 rst= 1  read_req=1 wdata= 20  datat_out=100101101001011010010110100101101001011010010110100101101001011010010110100101101001011010010110100101101001011010010110 
at time 7500 clk = 1   control_clk_miso = 0 rst= 1  read_req=1 wdata= 20  datat_out=100101101001011010010110100101101001011010010110100101101001011010010110100101101001011010010110100101101001011010010110 
at time 7550 clk = 0   control_clk_miso = 1 rst= 1  read_req=1 wdata= 20  datat_out=100101101001011010010110100101101001011010010110100101101001011010010110100101101001011010010110100101101001011010010110 
at time 7600 clk = 1   control_clk_miso = 0 rst= 1  read_req=1 wdata= 20  datat_out=100101101001011010010110100101101001011010010110100101101001011010010110100101101001011010010110100101101001011010010110 
at time 7650 clk = 0   control_clk_miso = 1 rst= 1  read_req=1 wdata= 20  datat_out=100101101001011010010110100101101001011010010110100101101001011010010110100101101001011010010110100101101001011010010110 
at time 7700 clk = 1   control_clk_miso = 0 rst= 1  read_req=1 wdata= 20  datat_out=100101101001011010010110100101101001011010010110100101101001011010010110100101101001011010010110100101101001011010010110 
